Gov 50 Final Project
…
There are 31 constituencies in Singapore: 14 Single-Member Constituencies and 17 group representation constituencies.For instance, the voting constituency named “Aljunied” comprises of 5 PARS: Bedok Reservoir–Punggol, Eunos, Kaki Bukit, Paya Lebar, Serangoon.

genel2020 <- genel |> 
  filter(year == 2020) |> 
  select(constituency, constituency_type, party, vote_percentage)

ge2020win <- genel2020 |> 
  mutate(vote_percentage = as.numeric(vote_percentage)) |> 
  mutate(Win = if_else(vote_percentage >= 0.5, "Yes", "No"))

ge2020win |> 
  select(constituency, party, vote_percentage)

# A tibble: 64 × 3
   constituency     party vote_percentage
   <chr>            <chr>           <dbl>
 1 Aljunied         PAP             0.400
 2 Aljunied         WP              0.600
 3 Ang Mo Kio       PAP             0.719
 4 Ang Mo Kio       RP              0.281
 5 Bishan-Toa Payoh PAP             0.672
 6 Bishan-Toa Payoh SPP             0.328
 7 Bukit Batok      SDP             0.452
 8 Bukit Batok      PAP             0.548
 9 Bukit Panjang    PAP             0.537
10 Bukit Panjang    SDP             0.463
# … with 54 more rows
…
